{
    "swagger": "2.0",
    "info": {
        "title": "api.proto",
        "version": ""
    },
    "schemes": [
        "http",
        "https"
    ],
    "consumes": [
        "application/json",
        "multipart/form-data"
    ],
    "produces": [
        "application/json"
    ],
    "paths": {
        "/userpb.UserCenter/HiUser": {
            "get": {
                "summary": "/userpb.UserCenter/HiUser",
                "responses": {
                    "200": {
                        "description": "A successful response.",
                        "schema": {
                            "type": "object",
                            "properties": {
                                "code": {
                                    "type": "integer"
                                },
                                "message": {
                                    "type": "string"
                                },
                                "data": {
                                    "$ref": "#/definitions/.userpb.Hello1Resp"
                                }
                            }
                        }
                    }
                },
                "parameters": [
                    {
                        "name": "name",
                        "in": "query",
                        "required": true,
                        "type": "string"
                    }
                ],
                "tags": [
                    "userpb.UserCenter"
                ]
            }
        },
        "/userpb.UserCenter/SayHello": {
            "get": {
                "summary": "/userpb.UserCenter/SayHello",
                "responses": {
                    "200": {
                        "description": "A successful response.",
                        "schema": {
                            "type": "object",
                            "properties": {
                                "code": {
                                    "type": "integer"
                                },
                                "message": {
                                    "type": "string"
                                },
                                "data": {
                                    "$ref": "#/definitions/.userpb.HelloResp"
                                }
                            }
                        }
                    }
                },
                "parameters": [
                    {
                        "name": "name",
                        "in": "query",
                        "required": true,
                        "type": "string"
                    }
                ],
                "tags": [
                    "userpb.UserCenter"
                ]
            }
        }
    },
    "definitions": {
        ".userpb.Hello1Req": {
            "type": "object",
            "properties": {
                "name": {
                    "type": "string"
                }
            },
            "required": [
                "name"
            ]
        },
        ".userpb.Hello1Resp": {
            "type": "object",
            "properties": {
                "Content": {
                    "type": "string"
                }
            }
        },
        ".userpb.HelloReq": {
            "type": "object",
            "properties": {
                "name": {
                    "type": "string"
                }
            },
            "required": [
                "name"
            ]
        },
        ".userpb.HelloResp": {
            "type": "object",
            "properties": {
                "content": {
                    "type": "string"
                }
            }
        }
    }
}