module git.digittraders.com/exchange/wallet

go 1.14

require (
	github.com/go-kratos/kratos v0.5.1-0.20200526160825-521d240568d0
	github.com/gogo/protobuf v1.3.1
	github.com/golang/protobuf v1.3.5
	github.com/google/wire v0.4.0
	golang.org/x/net v0.0.0-20200324143707-d3edc9973b7e
	google.golang.org/genproto v0.0.0-20200402124713-8ff61da6d932
	google.golang.org/grpc v1.28.1
)
